[
    {
        "id": "8124e3e33051441d",
        "type": "ui_chart",
        "z": "5777070ad03c2d4e",
        "name": "",
        "group": "91f96e8c22314e2d",
        "order": 1,
        "width": 0,
        "height": 0,
        "label": "Ttemperatura en el tiempo",
        "chartType": "line",
        "legend": "false",
        "xformat": "HH:mm:ss",
        "interpolate": "linear",
        "nodata": "",
        "dot": false,
        "ymin": "",
        "ymax": "",
        "removeOlder": 1,
        "removeOlderPoints": "",
        "removeOlderUnit": "3600",
        "cutout": 0,
        "useOneColor": false,
        "useUTC": false,
        "colors": [
            "#1f77b4",
            "#aec7e8",
            "#ff7f0e",
            "#2ca02c",
            "#98df8a",
            "#d62728",
            "#ff9896",
            "#9467bd",
            "#0adbf8"
        ],
        "outputs": 1,
        "useDifferentColor": false,
        "className": "",
        "x": 710,
        "y": 320,
        "wires": [
            []
        ]
    },
    {
        "id": "91f96e8c22314e2d",
        "type": "ui_group",
        "name": ".",
        "tab": "d03e203e9346b050",
        "order": 4,
        "disp": true,
        "width": "6",
        "collapse": false,
        "className": ""
    },
    {
        "id": "d03e203e9346b050",
        "type": "ui_tab",
        "name": "Tab 1",
        "icon": "dashboard",
        "order": 1,
        "disabled": false,
        "hidden": false
    }
]